{
  "file_generated_by": "FlutterFire CLI",
  "purpose": "FirebaseAppID & ProjectID for this Firebase app in this directory",
  "GOOGLE_APP_ID": "1:2612769165:ios:949882e065719d4b6e0dc4",
  "FIREBASE_PROJECT_ID": "kekkle",
  "GCM_SENDER_ID": "2612769165"
}